<svg xmlns="http://www.w3.org/2000/svg" xmlns:xlink="http://www.w3.org/1999/xlink" width="21.875" height="15.85" viewBox="0 0 21.875 15.85">
  <path id="youtube" d="M705.128,1727.1l-7.145-.01-7.425.01c-1.858,0-3.943,1.3-3.943,3.21v9.53c0,1.91,2.085,3.08,3.943,3.08h14.57a3.1,3.1,0,0,0,3.362-3.08v-9.53A3.2,3.2,0,0,0,705.128,1727.1Zm-8.989,11.57-0.043-7.25,4.8,3.66Z" transform="translate(-686.625 -1727.09)"/>
</svg>
